<?xml version="1.0" encoding="UTF-8" standalone="no"?>
<!-- Created with Inkscape (http://www.inkscape.org/) -->

<svg
   xmlns:dc="http://purl.org/dc/elements/1.1/"
   xmlns:cc="http://creativecommons.org/ns#"
   xmlns:rdf="http://www.w3.org/1999/02/22-rdf-syntax-ns#"
   xmlns:svg="http://www.w3.org/2000/svg"
   xmlns="http://www.w3.org/2000/svg"
   xmlns:sodipodi="http://sodipodi.sourceforge.net/DTD/sodipodi-0.dtd"
   xmlns:inkscape="http://www.inkscape.org/namespaces/inkscape"
   id="svg2"
   version="1.1"
   inkscape:version="0.91 r13725"
   xml:space="preserve"
   width="731.34583"
   height="399.46143"
   viewBox="0 0 731.34584 399.46143"
   sodipodi:docname="RoyalSociety.svg"><metadata
     id="metadata8"><rdf:RDF><cc:Work
         rdf:about=""><dc:format>image/svg+xml</dc:format><dc:type
           rdf:resource="http://purl.org/dc/dcmitype/StillImage" /><dc:title></dc:title></cc:Work></rdf:RDF></metadata><defs
     id="defs6" /><sodipodi:namedview
     pagecolor="#ffffff"
     bordercolor="#666666"
     borderopacity="1"
     objecttolerance="10"
     gridtolerance="10"
     guidetolerance="10"
     inkscape:pageopacity="0"
     inkscape:pageshadow="2"
     inkscape:window-width="1920"
     inkscape:window-height="1015"
     id="namedview4"
     showgrid="false"
     fit-margin-top="20"
     fit-margin-left="20"
     fit-margin-right="20"
     fit-margin-bottom="20"
     inkscape:zoom="0.47921639"
     inkscape:cx="778.29805"
     inkscape:cy="103.38834"
     inkscape:window-x="1080"
     inkscape:window-y="420"
     inkscape:window-maximized="1"
     inkscape:current-layer="g10" /><g
     id="g10"
     inkscape:groupmode="layer"
     inkscape:label="ink_ext_XXXXXX"
     transform="matrix(1.25,0,0,-1.25,997.83091,757.36291)"><g
       id="g4304"
       transform="matrix(3.7125583,0,0,3.7125583,-822.8359,503.74895)"><path
         d="m 28.1484,10.9371 c -0.5468,0 -1.3847,0.1117 -1.3847,1.5883 l 0,4.2113 0,0.0692 6.4238,0 0,-0.0692 0,-4.2109 c 0,-1.477 -0.8359,-1.5887 -1.3848,-1.5887 l 0,-0.3125 4.8692,0 0,0.3125 c -0.5489,0 -1.3867,0.1117 -1.3867,1.5883 l 0,4.2113 0,0.3508 0,4.2121 c 0,1.4793 0.8378,1.5883 1.3867,1.5883 l 0,0.3148 -4.8692,0 0,-0.3148 c 0.5489,0 1.3848,-0.1109 1.3848,-1.5887 l 0,-3.532 -6.4238,0 0,3.5324 c 0,1.4793 0.8379,1.5883 1.3847,1.5883 l 0,0.3148 -4.8671,0 0,-0.3148 c 0.5468,0 1.3847,-0.1109 1.3847,-1.5887 l 0,-4.2117 0,-0.3508 0,-4.2109 c 0,-1.477 -0.8379,-1.5887 -1.3847,-1.5887 l 0,-0.3125 4.8671,0 0,0.3125"
         style="fill:#231f20;fill-opacity:1;fill-rule:nonzero;stroke:none"
         id="path14"
         inkscape:connector-curvature="0" /><path
         d="m 13.3586,22.3137 1.6746,0 0,-9.7879 c 0,-1.477 -0.8367,-1.5887 -1.3855,-1.5887 l 0,-0.3125 4.8687,0 0,0.3125 c -0.5484,0 -1.3855,0.1117 -1.3855,1.5883 l 0,9.7883 1.675,0 c 1.8113,0 1.8871,-0.9246 2.1156,-1.5641 l 0.314,0 0,2.4531 -5.1285,0 -1.1445,0 -4.0344,0 0,-2.4531 0.3141,0 c 0.2289,0.6395 0.3047,1.5641 2.1164,1.5641"
         style="fill:#231f20;fill-opacity:1;fill-rule:nonzero;stroke:none"
         id="path16"
         inkscape:connector-curvature="0" /><path
         d="m 40.2617,21.2992 0,-8.7734 c 0,-1.477 -0.8359,-1.5887 -1.3847,-1.5887 l 0,-0.3125 3.414,0 0.0684,0 5.5586,0 0,2.4969 -0.3184,0 c -0.1894,-0.8656 -0.4492,-1.6102 -1.5859,-1.6102 l -3.6543,0 0,5.2254 0,0.3313 2.1855,0 c 1.2207,0 1.375,-0.7899 1.3535,-1.3844 l 0.3164,0 0.3829,2.2719 0,0 0.0625,0.375 -0.295,0 c -0.2656,-0.3328 -0.5273,-0.375 -1.1367,-0.375 l -2.8691,0 0,4.3582 3.0761,0 c 1.1348,0 1.5059,-0.7883 1.586,-1.386 l 0.3164,0 0,2.275 -3.6445,0 -1.9825,0 -2.8339,0 0,-0.3148 c 0.5488,0 1.3847,-0.1109 1.3847,-1.5887"
         style="fill:#231f20;fill-opacity:1;fill-rule:nonzero;stroke:none"
         id="path18"
         inkscape:connector-curvature="0" /></g><g
       id="g4279"
       transform="matrix(6.9304374,0,0,6.9304374,-1644.0923,230.71868)"><path
         d="m 166.113,17.0816 0,4.2168 c 0,1.4805 0.836,1.5918 1.387,1.5918 l 0,0.3137 -1.193,0 -3.682,0 0,-0.3137 c 0.549,0 1.387,-0.1113 1.387,-1.5918 l 0,-4.2168 0,-0.3515 0,-4.2149 c 0,-1.4804 -0.838,-1.591 -1.387,-1.591 l 0,-0.3144 4.875,0 0,0.3144 c -0.551,0 -1.387,0.1106 -1.387,1.591 l 0,4.2149 0,0.3515"
         style="fill:#231f20;fill-opacity:1;fill-rule:nonzero;stroke:none"
         id="path20"
         inkscape:connector-curvature="0" /><path
         d="m 184.32,23.2039 -4.039,0 0,-2.4555 0.315,0 c 0.228,0.6407 0.304,1.5653 2.117,1.5653 l 1.678,0 0,-9.7985 c 0,-1.4804 -0.838,-1.591 -1.385,-1.591 l 0,-0.3144 4.873,0 0,0.3144 c -0.549,0 -1.387,0.1106 -1.387,1.591 l 0,9.7985 1.676,0 c 1.814,0 1.891,-0.9246 2.119,-1.5653 l 0.315,0 0,2.4555 -5.135,0 -1.147,0"
         style="fill:#231f20;fill-opacity:1;fill-rule:nonzero;stroke:none"
         id="path22"
         inkscape:connector-curvature="0" /><path
         d="m 140.717,11.2328 c -2.633,-0.1371 -4.354,2.3106 -4.504,5.4387 -0.149,3.1258 1.332,5.7488 3.967,5.8855 2.634,0.136 4.355,-2.3121 4.504,-5.4402 0.148,-3.1266 -1.33,-5.748 -3.967,-5.884 z m 6.295,5.6613 c 0,3.625 -2.477,6.5622 -6.563,6.5622 -4.086,0 -6.564,-2.9372 -6.564,-6.5622 0,-3.623 2.478,-6.5625 6.564,-6.5625 4.086,0 6.563,2.9395 6.563,6.5625"
         style="fill:#231f20;fill-opacity:1;fill-rule:nonzero;stroke:none"
         id="path24"
         inkscape:connector-curvature="0" /><path
         d="m 155.475,22.6383 c 2.07,0 3.576,-1.0266 4.205,-2.9086 l 0.312,0 -0.008,2.8957 c -0.759,0.2473 -2.578,0.8332 -4.308,0.8332 -2.494,0 -3.947,-0.6691 -5.155,-1.775 -1.607,-1.4734 -1.957,-3.6391 -1.957,-4.7777 0,-1.1368 0.35,-3.3028 1.957,-4.7766 1.208,-1.1055 2.661,-1.7762 5.155,-1.7762 1.73,0 3.549,0.5879 4.308,0.8328 l 0.008,2.8977 -0.312,0 c -0.629,-1.8832 -2.135,-2.909 -4.205,-2.909 -1.909,0 -4.551,1.1258 -4.551,5.7313 0,4.6074 2.642,5.7324 4.551,5.7324"
         style="fill:#231f20;fill-opacity:1;fill-rule:nonzero;stroke:none"
         id="path26"
         inkscape:connector-curvature="0" /><path
         d="m 132.367,14.2164 c -0.017,1.9891 -1.56,2.9051 -3.15,3.8426 -1.174,0.6906 -3.047,1.3605 -3.047,2.7105 0,1.2688 1.084,1.9278 2.301,1.9278 1.787,0 2.625,-1.152 2.873,-2.5043 l 0.422,0 0,2.532 c -0.67,0.3352 -1.725,0.7434 -3.149,0.7434 -2.082,0 -4.053,-1.2512 -4.107,-3.3606 -0.035,-1.8515 1.078,-2.5359 3.236,-3.7265 1.426,-0.7872 2.91,-1.827 2.91,-3.0047 0,-1.3028 -1.164,-2.1504 -2.654,-2.1504 -2.541,0 -3.154,1.9765 -3.238,3.1043 l -0.403,0 -0.007,-2.9317 c 0.816,-0.5476 2.101,-1.0633 3.574,-1.0472 2.781,0 4.439,1.705 4.439,3.8648"
         style="fill:#231f20;fill-opacity:1;fill-rule:nonzero;stroke:none"
         id="path28"
         inkscape:connector-curvature="0" /><path
         d="m 169.781,23.2039 0,-0.3137 c 0.549,0 1.387,-0.1113 1.387,-1.5918 l 0,-4.5683 0,-4.2149 c 0,-1.4804 -0.838,-1.591 -1.387,-1.591 l 0,-0.3144 3.418,0 0.069,0 5.535,0 0,2.4992 -0.317,0 c -0.191,-0.8664 -0.451,-1.6094 -1.588,-1.6094 l -3.63,0 0,5.2305 0,0.332 2.16,0 c 1.218,0 1.375,-0.7902 1.351,-1.3887 l 0.319,0 0.382,2.2774 0,0 0.063,0.3758 -0.295,0 c -0.266,-0.3344 -0.527,-0.3758 -1.139,-0.3758 l -2.841,0 0,4.3629 3.05,0 c 1.137,0 1.508,-0.7883 1.588,-1.3875 l 0.315,0 0,2.2777 -3.647,0 -1.957,0 -2.836,0"
         style="fill:#231f20;fill-opacity:1;fill-rule:nonzero;stroke:none"
         id="path30"
         inkscape:connector-curvature="0" /><path
         d="m 200.889,23.2039 0,-0.3137 c 0.248,-0.0754 0.808,-0.3808 0.306,-1.3328 l -2.519,-4.4535 -2.696,4.7063 c -0.375,0.6582 -0.144,1.08 0.28,1.08 l 0,0.3137 -4.11,0 0,-0.3137 c 0.856,0 1.383,-0.716 2.008,-1.7394 L 197.252,16 l 0,-3.4848 c 0,-1.4804 -0.838,-1.591 -1.387,-1.591 l 0,-0.3144 4.875,0 0,0.3144 c -0.551,0 -1.388,0.1106 -1.388,1.591 l 0,3.6957 3.25,5.4352 c 0.525,0.7902 0.904,1.0937 1.556,1.2441 l 0,0.3137 -3.269,0"
         style="fill:#231f20;fill-opacity:1;fill-rule:nonzero;stroke:none"
         id="path32"
         inkscape:connector-curvature="0" /></g><g
       id="g4272"
       transform="matrix(6.8940558,0,0,6.8940558,-1170.9578,351.27405)"><path
         d="m 59.8691,17.0777 0,5.3485 1.002,0 c 1.6973,0 2.5449,-1.2641 2.5449,-2.8926 0,-1.6277 -0.8476,-2.8918 -2.5449,-2.8918 l -1.002,0 0,0.0844 0,0.3515 z m 1.3868,-6.1582 c -0.5489,0 -1.3868,0.1102 -1.3868,1.5899 l 0,3.2558 1.0743,0 0.666,0 2.1308,-2.9043 c 1.1387,-1.5695 3.0528,-3.37613 5.6153,-2.2921 l -0.0528,0.2867 c -0.7773,-0.1614 -1.8261,0.4515 -2.9453,1.7164 l -3.1465,3.8953 c 1.1914,0.7941 2.1914,2.0371 2.1914,3.7023 0,2.0399 -1.3906,3.0285 -4.1464,3.0285 l -4.875,0 0,-0.3132 c 0.5507,0 1.3867,-0.1129 1.3867,-1.591 l 0,-4.2161 0,-0.3515 0,-4.2168 c 0,-1.4797 -0.836,-1.5899 -1.3867,-1.5899 l 0,-0.3156 4.875,0 0,0.3156"
         style="fill:#231f20;fill-opacity:1;fill-rule:nonzero;stroke:none"
         id="path34"
         inkscape:connector-curvature="0" /><path
         d="m 74.8379,22.557 c 2.6348,0.1348 4.3574,-2.3132 4.5039,-5.4402 0.1504,-3.1266 -1.3301,-5.7484 -3.9629,-5.8859 -2.6348,-0.1356 -4.3574,2.3117 -4.5039,5.4402 -0.1504,3.1258 1.3301,5.7484 3.9629,5.8859 z m 0.2715,-12.2257 c 4.084,0 6.5644,2.9382 6.5644,6.5617 0,3.625 -2.4804,6.5625 -6.5644,6.5625 -4.086,0 -6.5645,-2.9375 -6.5645,-6.5625 0,-3.6235 2.4785,-6.5617 6.5645,-6.5617"
         style="fill:#231f20;fill-opacity:1;fill-rule:nonzero;stroke:none"
         id="path36"
         inkscape:connector-curvature="0" /><path
         d="m 83.6406,21.1461 3.0918,-5.1523 0,-3.4844 c 0,-1.4797 -0.8379,-1.5899 -1.3867,-1.5899 l 0,-0.3156 4.875,0 0,0.3156 c -0.5488,0 -1.3867,0.1102 -1.3867,1.5899 l 0,3.6961 3.248,5.4367 c 0.5254,0.7879 1.5352,1.2426 2.041,1.2426 l 0,0.3132 -3.8613,0 0,-0.3132 c 0.2969,0 1.1192,-0.0293 0.416,-1.3325 l -2.4902,-4.5089 -2.7266,4.7629 c -0.373,0.6562 -0.1445,1.0785 0.2793,1.0785 l 0,0.3132 -4.3828,0 0,-0.3132 c 0.8555,0 1.6582,-0.7153 2.2832,-1.7387"
         style="fill:#231f20;fill-opacity:1;fill-rule:nonzero;stroke:none"
         id="path38"
         inkscape:connector-curvature="0" /><path
         d="m 100.656,15.0844 -3.8611,0 1.8985,5.1785 1.9626,-5.1785 z m -7.9919,-4.1649 0,-0.3156 3.8125,0 0,0.3137 c -0.8692,0 -0.9922,0.4715 -0.8028,1.1039 l 0.8125,2.225 4.4867,0 0.855,-2.2547 c 0.299,-0.8086 0.19,-1.0734 -0.412,-1.0734 l 0,-0.3145 4.416,0 0,0.3156 c -0.855,0 -1.412,0.2758 -2.053,1.7371 l -4.277,10.5286 -0.5957,0 -4.3809,-10.7004 c -0.6211,-1.4883 -1.209,-1.5653 -1.8613,-1.5653"
         style="fill:#231f20;fill-opacity:1;fill-rule:nonzero;stroke:none"
         id="path40"
         inkscape:connector-curvature="0" /><path
         d="m 111.049,10.6039 5.615,0 0,2.5 -0.316,0 c -0.19,-0.8656 -0.45,-1.6101 -1.586,-1.6101 l -3.713,0 0,5.2324 0,0.3515 0,4.2168 c 0,1.4789 0.84,1.5903 1.389,1.5903 l 0,0.3132 -4.875,0 0,-0.3132 c 0.548,0 1.386,-0.1129 1.386,-1.591 l 0,-4.2161 0,-0.3515 0,-4.2168 c 0,-1.4797 -0.838,-1.5899 -1.386,-1.5899 l 0,-0.3156 3.416,0 0.07,0"
         style="fill:#231f20;fill-opacity:1;fill-rule:nonzero;stroke:none"
         id="path42"
         inkscape:connector-curvature="0" /></g></g></svg>